{
  "orders": [
    {
      "id": 1,
      "name": "one"
    },
    {
      "id": 2,
      "name": "two"
    },
    {
      "id": 3,
      "name": "three"
    },
    {
      "id": 4,
      "name": "4"
    },
    {
      "id": 5,
      "name": "5"
    },
    {
      "id": 6,
      "name": "6"
    }
  ]
}